\relax 
\@writefile{toc}{\contentsline {section}{\numberline {1}Testo del Problema}{1}}
\@writefile{toc}{\contentsline {section}{\numberline {2}Requisiti}{1}}
\@writefile{toc}{\contentsline {subsection}{\numberline {2.1}Subtitle}{1}}
\@writefile{toc}{\contentsline {subsection}{\numberline {2.2}Another subtitle}{1}}
